Get All Comment — getAllComment • N2H4
…
    Details

    Works just like getComment, but this function executed in a fashion where it finds and extracts all comments from the given url.

    Examples

# \donttest{
  print(news_url_ex)
#> [1] "https://news.naver.com/main/read.nhn?mode=LSD&mid=shm&sid1=101&oid=374&aid=0000184049"
  getAllComment(news_url_ex)
#> Warning: `cols` is now required.
#> Please use `cols = c()`
#> Warning: `cols` is now required.
#> Please use `cols = c()`
#> # A tibble: 136 x 77
#>    ticket objectId categoryId templateId commentNo parentCommentNo replyLevel
#>    <chr>  <chr>    <chr>      <chr>          <int>           <int>      <int>
#>  1 news   news374… *          default_e…    1.71e9      1707777412          1
#>  2 news   news374… *          view_econ…    1.71e9      1707772282          1
#>  3 news   news374… *          default_e…    1.71e9      1707723522          1
#>  4 news   news374… *          view_econ…    1.71e9      1707710742          1
#>  5 news   news374… *          view_econ…    1.71e9      1707691422          1
#>  6 news   news374… *          view_econ…    1.71e9      1707682112          1
#>  7 news   news374… *          view_econ…    1.71e9      1707645262          1
#>  8 news   news374… *          view_econ…    1.71e9      1707644392          1
#>  9 news   news374… *          default_e…    1.71e9      1707638522          1
#> 10 news   news374… *          view_econ…    1.71e9      1707632452          1
#> # … with 126 more rows, and 70 more variables: replyCount <int>,
#> #   replyAllCount <int>, replyPreviewNo <lgl>, replyList <lgl>,
#> #   imageCount <int>, imageList <lgl>, imagePathList <lgl>,
#> #   imageWidthList <lgl>, imageHeightList <lgl>, commentType <chr>,
#> #   stickerId <lgl>, sticker <lgl>, sortValue <dbl>, contents <chr>,
#> #   userIdNo <chr>, exposedUserIp <lgl>, lang <chr>, country <chr>,
#> #   idType <chr>, idProvider <chr>, userName <chr>, userProfileImage <chr>,
#> #   profileType <chr>, modTime <chr>, modTimeGmt <chr>, regTime <chr>,
#> #   regTimeGmt <chr>, sympathyCount <int>, antipathyCount <int>,
…
